classes = 16
train = /home/richard/git/yopo/output/train.txt
valid = /home/richard/git/yopo/output/test.txt
names = /home/richard/git/yopo/data/train_yolo/obj.names
backup = /home/richard/git/yopo/data/train_yolo/backup
